<svg xmlns="http://www.w3.org/2000/svg" width="157.474" height="117.283" viewBox="0 0 157.474 117.283">
  <g id="Groupe_1076" data-name="Groupe 1076" transform="translate(-864.844 -207.032)">
    <path id="Tracé_688" data-name="Tracé 688" d="M2470.938-182.068l-29.894,29.891a4.57,4.57,0,0,1-3.234,1.339h-39.164a4.573,4.573,0,0,0-4.572,4.575v42.975a4.573,4.573,0,0,0,4.572,4.572h39.164a4.57,4.57,0,0,1,3.234,1.339l29.894,29.894a4.572,4.572,0,0,0,7.805-3.233v-108.12A4.571,4.571,0,0,0,2470.938-182.068Z" transform="translate(-1529.23 390.449)" fill="#3c287e"/>
    <g id="Groupe_1075" data-name="Groupe 1075" transform="translate(985.127 248.037)">
      <line id="Ligne_128" data-name="Ligne 128" x2="33.656" y2="33.656" transform="translate(0 0)" fill="none" stroke="#cc1f30" stroke-miterlimit="10" stroke-width="10"/>
      <line id="Ligne_129" data-name="Ligne 129" x1="33.656" y2="33.656" transform="translate(0 0)" fill="none" stroke="#cc1f30" stroke-miterlimit="10" stroke-width="10"/>
    </g>
  </g>
</svg>
