<svg xmlns="http://www.w3.org/2000/svg" width="19" height="21" viewBox="0 0 19 21">
  <g id="Groupe_916" data-name="Groupe 916" transform="translate(-1163.762 -204)">
    <circle id="Ellipse_490" data-name="Ellipse 490" cx="3.5" cy="3.5" r="3.5" transform="translate(1163.762 218)" fill="#4a4a49"/>
    <path id="Tracé_389" data-name="Tracé 389" d="M3.5,0A3.612,3.612,0,0,1,6.725,2.138,3.127,3.127,0,0,1,7,3.5,3.5,3.5,0,1,1,3.5,0Z" transform="translate(1163.762 204)" fill="#4a4a49"/>
    <circle id="Ellipse_492" data-name="Ellipse 492" cx="3.5" cy="3.5" r="3.5" transform="translate(1175.762 211)" fill="#4a4a49"/>
    <line id="Ligne_34" data-name="Ligne 34" y1="4.169" x2="6.949" transform="translate(1169.906 216.16)" fill="none" stroke="#414140" stroke-width="2"/>
    <line id="Ligne_35" data-name="Ligne 35" x2="6.949" y2="4.169" transform="translate(1169.906 208.517)" fill="none" stroke="#414140" stroke-width="2"/>
  </g>
</svg>
