<svg xmlns="http://www.w3.org/2000/svg" width="118" height="74" viewBox="0 0 118 74">
  <g id="Groupe_1103" data-name="Groupe 1103" transform="translate(-271.98 -1485.863)">
    <rect id="Rectangle_777" data-name="Rectangle 777" width="118" height="74" rx="4" transform="translate(271.98 1485.863)" fill="#ede9e2"/>
    <line id="Ligne_148" data-name="Ligne 148" x2="23.592" transform="translate(289.326 1529.13)" fill="none" stroke="#4a4a49" stroke-linecap="round" stroke-width="3"/>
    <line id="Ligne_149" data-name="Ligne 149" x2="25.804" transform="translate(346.831 1537.239)" fill="none" stroke="#4a4a49" stroke-linecap="round" stroke-width="3"/>
    <line id="Ligne_150" data-name="Ligne 150" x2="37.6" transform="translate(293.749 1501.114)" fill="none" stroke="#4a4a49" stroke-linecap="round" stroke-width="3"/>
    <line id="Ligne_151" data-name="Ligne 151" x2="10.322" transform="translate(347.569 1507.012)" fill="none" stroke="#4a4a49" stroke-linecap="round" stroke-width="3"/>
    <line id="Ligne_152" data-name="Ligne 152" x2="10.322" transform="translate(307.757 1518.071)" fill="none" stroke="#4a4a49" stroke-linecap="round" stroke-width="3"/>
    <path id="Tracé_314" data-name="Tracé 314" d="M436.845,273.137V259.462l12.295,6.838Z" transform="translate(-108.943 1259.201)" fill="#cc1f30" stroke="#cc1f30" stroke-linecap="round" stroke-linejoin="round" stroke-width="3"/>
    <line id="Ligne_146" data-name="Ligne 146" x2="98.564" transform="translate(280.617 1549.142)" fill="none" stroke="#312171" stroke-linecap="round" stroke-width="3"/>
    <line id="Ligne_147" data-name="Ligne 147" y2="7.67" transform="translate(296.836 1545.051)" fill="none" stroke="#312171" stroke-linecap="round" stroke-width="3"/>
  </g>
</svg>
