<svg xmlns="http://www.w3.org/2000/svg" width="44.622" height="57.218" viewBox="0 0 44.622 57.218">
  <g id="Groupe_1139" data-name="Groupe 1139" transform="translate(-2 1)">
    <rect id="Rectangle_770" data-name="Rectangle 770" width="42.622" height="55.218" transform="translate(3)" fill="none" stroke="#fff" stroke-linecap="round" stroke-linejoin="round" stroke-miterlimit="10" stroke-width="2"/>
    <rect id="Rectangle_771" data-name="Rectangle 771" width="4.34" height="4.34" transform="translate(10.858 16.786)" fill="none" stroke="#fff" stroke-linecap="round" stroke-linejoin="round" stroke-miterlimit="10" stroke-width="2"/>
    <line id="Ligne_142" data-name="Ligne 142" x2="16.971" transform="translate(19.565 18.956)" fill="none" stroke="#fff" stroke-linecap="round" stroke-miterlimit="10" stroke-width="2"/>
    <rect id="Rectangle_772" data-name="Rectangle 772" width="4.34" height="4.34" transform="translate(10.858 26.228)" fill="none" stroke="#fff" stroke-linecap="round" stroke-linejoin="round" stroke-miterlimit="10" stroke-width="2"/>
    <line id="Ligne_143" data-name="Ligne 143" x2="16.971" transform="translate(19.565 28.398)" fill="none" stroke="#fff" stroke-linecap="round" stroke-miterlimit="10" stroke-width="2"/>
    <rect id="Rectangle_773" data-name="Rectangle 773" width="4.34" height="4.34" transform="translate(10.858 35.669)" fill="none" stroke="#fff" stroke-linecap="round" stroke-linejoin="round" stroke-miterlimit="10" stroke-width="2"/>
    <line id="Ligne_144" data-name="Ligne 144" x2="16.971" transform="translate(19.565 37.84)" fill="none" stroke="#fff" stroke-linecap="round" stroke-miterlimit="10" stroke-width="2"/>
  </g>
</svg>
