<svg xmlns="http://www.w3.org/2000/svg" width="66.868" height="53.801" viewBox="0 0 66.868 53.801">
  <g id="Groupe_1197" data-name="Groupe 1197" transform="translate(1.184 1)">
    <path id="Tracé_699" data-name="Tracé 699" d="M2824.527-184.58a10.875,10.875,0,0,1-10.876,10.876,10.875,10.875,0,0,1-10.875-10.876Z" transform="translate(-2802.776 225.505)" fill="none" stroke="#bc3337" stroke-linecap="round" stroke-linejoin="round" stroke-miterlimit="10" stroke-width="2"/>
    <path id="Tracé_700" data-name="Tracé 700" d="M2802.312-174.422l11.367-29.547,10.275,29.547" transform="translate(-2802.203 215.347)" fill="none" stroke="#bc3337" stroke-linecap="round" stroke-linejoin="round" stroke-miterlimit="10" stroke-width="2"/>
    <path id="Tracé_701" data-name="Tracé 701" d="M2851.949-188.148a10.876,10.876,0,0,1-10.876,10.876,10.875,10.875,0,0,1-10.875-10.876Z" transform="translate(-2787.536 228.871)" fill="none" stroke="#bc3337" stroke-linecap="round" stroke-linejoin="round" stroke-miterlimit="10" stroke-width="2"/>
    <path id="Tracé_702" data-name="Tracé 702" d="M2830.2-177.99l11.475-29.547,10.275,29.547" transform="translate(-2787.537 218.712)" fill="none" stroke="#bc3337" stroke-linecap="round" stroke-linejoin="round" stroke-miterlimit="10" stroke-width="2"/>
    <line id="Ligne_135" data-name="Ligne 135" x2="42.357" transform="translate(11.779 11.176)" fill="none" stroke="#bc3337" stroke-linecap="round" stroke-miterlimit="10" stroke-width="2"/>
    <line id="Ligne_136" data-name="Ligne 136" y2="10.098" transform="translate(31.685)" fill="none" stroke="#bc3337" stroke-linecap="round" stroke-miterlimit="10" stroke-width="2"/>
    <circle id="Ellipse_516" data-name="Ellipse 516" cx="3.989" cy="3.989" r="3.989" transform="translate(27.697 10.098)" fill="#fff" stroke="#bc3337" stroke-linecap="round" stroke-linejoin="round" stroke-miterlimit="10" stroke-width="2"/>
  </g>
</svg>
