<svg xmlns="http://www.w3.org/2000/svg" width="9.182" height="14.121" viewBox="0 0 9.182 14.121">
  <path id="Tracé_378" data-name="Tracé 378" d="M586.822,247.872l-6,6-6-6" transform="translate(255.994 -573.762) rotate(90)" fill="none" stroke="#414140" stroke-miterlimit="10" stroke-width="3"/>
</svg>
