<?xml version="1.0" standalone="no"?>
<!DOCTYPE svg PUBLIC "-//W3C//DTD SVG 20010904//EN"
 "http://www.w3.org/TR/2001/REC-SVG-20010904/DTD/svg10.dtd">
<svg version="1.0" xmlns="http://www.w3.org/2000/svg"
 width="700.000000pt" height="700.000000pt" viewBox="0 0 700.000000 700.000000"
 preserveAspectRatio="xMidYMid meet">
<metadata>
Created by potrace 1.11, written by Peter Selinger 2001-2013
</metadata>
<g transform="translate(0.000000,700.000000) scale(0.100000,-0.100000)"
fill="#000000" stroke="none">
<path d="M3320 6713 c-622 -23 -1209 -213 -1715 -553 -718 -483 -1216 -1227
-1385 -2070 -47 -235 -63 -398 -63 -655 0 -633 162 -1204 491 -1735 475 -765
1268 -1313 2150 -1484 404 -79 853 -80 1252 -5 1487 282 2588 1551 2659 3064
32 677 -141 1342 -497 1907 -515 820 -1368 1370 -2327 1502 -159 22 -415 35
-565 29z m348 -2621 c220 -82 380 -259 443 -487 18 -66 21 -98 17 -195 -8
-194 -63 -314 -213 -465 -73 -74 -106 -98 -175 -132 -114 -56 -194 -75 -310
-74 -113 0 -187 18 -295 71 -266 130 -429 422 -394 705 25 201 137 385 302
497 134 91 233 119 412 114 117 -2 139 -6 213 -34z"/>
</g>
</svg>
