<svg xmlns="http://www.w3.org/2000/svg" width="166.836" height="133.801" viewBox="0 0 166.836 133.801">
  <g id="Groupe_869" data-name="Groupe 869" transform="translate(-335.667 -167.726)">
    <path id="Tracé_360" data-name="Tracé 360" d="M347.978,270.972v6.334a20.236,20.236,0,0,0,20.235,20.235h0a20.236,20.236,0,0,0,20.235-20.235l-.6-49.076A55.432,55.432,0,0,1,443.283,172.8h49" transform="translate(10.215 -0.015)" fill="none" stroke="#b3b6f8" stroke-miterlimit="10" stroke-width="8"/>
    <g id="Groupe_868" data-name="Groupe 868" transform="translate(337.679 172.726)">
      <path id="Tracé_361" data-name="Tracé 361" d="M340.435,184.072l5.7,40.865a9.521,9.521,0,0,0,9.3,7.5h0a9.52,9.52,0,0,0,9.33-7.623l5.324-40.744Z" transform="translate(-334.945 -134.169)" fill="#3c287e"/>
      <line id="Ligne_29" data-name="Ligne 29" y2="11.992" transform="translate(20.095 69.465)" fill="none" stroke="#fff" stroke-miterlimit="10" stroke-width="4"/>
      <line id="Ligne_30" data-name="Ligne 30" x2="32.571" transform="translate(4.035 89.068)" fill="none" stroke="#fff" stroke-miterlimit="10" stroke-width="3"/>
      <g id="Tracé_362" data-name="Tracé 362" transform="translate(2.988)" fill="#cc1f30">
        <path d="M 18.26861381530762 59.1866569519043 L 17.80741310119629 59.1866569519043 C 15.0670337677002 59.1866569519043 12.40729331970215 58.64938735961914 9.902083396911621 57.58977508544922 C 7.483593463897705 56.56683731079102 5.312093257904053 55.10294723510742 3.447903394699097 53.2387580871582 C 1.583713412284851 51.37456512451172 0.1198234558105469 49.20306777954102 -0.9031165242195129 46.78457641601562 C -1.962726593017578 44.27936553955078 -2.499996423721313 41.61962509155273 -2.499996423721313 38.87924575805664 L -2.499996423721313 17.80740737915039 C -2.499996423721313 15.06702613830566 -1.962726593017578 12.40728664398193 -0.9031165242195129 9.902076721191406 C 0.1198234558105469 7.48358678817749 1.583713412284851 5.312086582183838 3.447903394699097 3.447896480560303 C 5.312093257904053 1.583706617355347 7.483593463897705 0.1198165714740753 9.902083396911621 -0.9031234383583069 C 12.40729331970215 -1.962733387947083 15.0670337677002 -2.500003337860107 17.80741310119629 -2.500003337860107 L 18.26861381530762 -2.500003337860107 C 21.00899314880371 -2.500003337860107 23.66873359680176 -1.962733387947083 26.17394256591797 -0.9031234383583069 C 28.59243392944336 0.1198165714740753 30.7639331817627 1.583706617355347 32.62812423706055 3.447896480560303 C 34.49231338500977 5.312086582183838 35.95620346069336 7.48358678817749 36.97914505004883 9.902076721191406 C 38.03875350952148 12.40728664398193 38.57602310180664 15.06702613830566 38.57602310180664 17.80740737915039 L 38.57602310180664 38.87924575805664 C 38.57602310180664 41.61962509155273 38.03875350952148 44.27936553955078 36.97914505004883 46.78457641601562 C 35.95620346069336 49.20306777954102 34.49231338500977 51.37456512451172 32.62812423706055 53.2387580871582 C 30.7639331817627 55.10294723510742 28.59243392944336 56.56683731079102 26.17394256591797 57.58977508544922 C 23.66873359680176 58.64938735961914 21.00899314880371 59.1866569519043 18.26861381530762 59.1866569519043 Z" stroke="none"/>
        <path d="M 17.80741310119629 -3.814697265625e-06 C 7.972648620605469 -3.814697265625e-06 0 7.972644805908203 0 17.80740737915039 L 0 38.87924194335938 C 0 48.71400833129883 7.972648620605469 56.6866569519043 17.80741310119629 56.6866569519043 L 18.26861381530762 56.6866569519043 C 28.10337829589844 56.6866569519043 36.07602691650391 48.71400833129883 36.07602691650391 38.87924194335938 L 36.07602691650391 17.80740737915039 C 36.07602691650391 7.972644805908203 28.10337829589844 -3.814697265625e-06 18.26861381530762 -3.814697265625e-06 L 17.80741310119629 -3.814697265625e-06 M 17.80741310119629 -5.000003814697266 L 18.26861381530762 -5.000003814697266 C 21.34539031982422 -5.000003814697266 24.33279037475586 -4.396286010742188 27.14782524108887 -3.20562744140625 C 29.86430740356445 -2.056648254394531 32.30290603637695 -0.4128494262695312 34.39589691162109 1.680126190185547 C 36.48887252807617 3.773113250732422 38.13267135620117 6.211715698242188 39.28164672851562 8.928195953369141 C 40.47230911254883 11.74323272705078 41.07602691650391 14.73063278198242 41.07602691650391 17.80740737915039 L 41.07602691650391 38.87924194335938 C 41.07602691650391 41.95602035522461 40.47230911254883 44.94342041015625 39.28164672851562 47.75845718383789 C 38.13267135620117 50.47493743896484 36.48887252807617 52.91353988647461 34.39589691162109 55.00652694702148 C 32.30290603637695 57.09950256347656 29.86430740356445 58.74330139160156 27.14782524108887 59.89228057861328 C 24.33279037475586 61.08293914794922 21.34539031982422 61.6866569519043 18.26861381530762 61.6866569519043 L 17.80741310119629 61.6866569519043 C 14.73063659667969 61.6866569519043 11.74323654174805 61.08293914794922 8.928201675415039 59.89228057861328 C 6.211719512939453 58.74330139160156 3.773120880126953 57.09950256347656 1.680130004882812 55.00652694702148 C -0.4128456115722656 52.91353988647461 -2.056644439697266 50.47493743896484 -3.205623626708984 47.75845718383789 C -4.396282196044922 44.94342041015625 -5 41.95602035522461 -5 38.87924194335938 L -5 17.80740737915039 C -5 14.73063278198242 -4.396282196044922 11.74323272705078 -3.205623626708984 8.928195953369141 C -2.056644439697266 6.211715698242188 -0.4128456115722656 3.773113250732422 1.680130004882812 1.680126190185547 C 3.773120880126953 -0.4128494262695312 6.211719512939453 -2.056648254394531 8.928201675415039 -3.20562744140625 C 11.74323654174805 -4.396286010742188 14.73063659667969 -5.000003814697266 17.80741310119629 -5.000003814697266 Z" stroke="none" fill="#fff"/>
      </g>
      <line id="Ligne_31" data-name="Ligne 31" x2="15.043" transform="translate(0 19.774)" fill="none" stroke="#fff" stroke-miterlimit="10" stroke-width="5"/>
      <line id="Ligne_32" data-name="Ligne 32" x2="15.043" transform="translate(0 27.604)" fill="none" stroke="#fff" stroke-miterlimit="10" stroke-width="5"/>
      <line id="Ligne_33" data-name="Ligne 33" x2="15.043" transform="translate(0 35.434)" fill="none" stroke="#fff" stroke-miterlimit="10" stroke-width="5"/>
    </g>
  </g>
</svg>
